{
  "openViewOnStart": true,
  "ribbonIcon": true,
  "showRootFolder": false,
  "showFilesFromSubFolders": false,
  "searchFunction": true,
  "allSearchOnlyInFocusedFolder": false,
  "showFilesFromSubFoldersButton": true,
  "revealActiveFileButton": false,
  "excludedExtensions": "",
  "folderIcon": "default",
  "folderCount": true,
  "folderCountOption": "files",
  "evernoteView": "Vertical",
  "filePreviewOnHover": false,
  "iconBeforeFileName": true,
  "sortFilesBy": "name",
  "sortReverse": false,
  "sortFoldersBy": "name",
  "fixedHeaderInFileList": true,
  "createdYaml": false,
  "fileNameIsHeader": false,
  "folderNote": false,
  "deleteFileOption": "trash",
  "showFileNameAsFullPath": false
}